module gitlab.com/olivierva/narrowboat-server

require (
	cloud.google.com/go v0.37.4 // indirect
	github.com/DataDog/zstd v1.4.0 // indirect
	github.com/Shopify/sarama v1.22.0 // indirect
	github.com/beorn7/perks v1.0.0 // indirect
	github.com/go-logfmt/logfmt v0.4.0 // indirect
	github.com/gogo/protobuf v1.2.1 // indirect
	github.com/golang/protobuf v1.3.1 // indirect
	github.com/google/btree v1.0.0 // indirect
	github.com/google/pprof v0.0.0-20190404155422-f8f10df84213 // indirect
	github.com/gorilla/mux v1.7.1 // indirect
	github.com/hashicorp/golang-lru v0.5.1 // indirect
	github.com/kisielk/errcheck v1.2.0 // indirect
	github.com/konsorten/go-windows-terminal-sequences v1.0.2 // indirect
	github.com/kr/pretty v0.1.0 // indirect
	github.com/onsi/ginkgo v1.8.0 // indirect
	github.com/onsi/gomega v1.5.0 // indirect
	github.com/pkg/errors v0.8.1 // indirect
	github.com/prometheus/client_model v0.0.0-20190129233127-fd36f4220a90 // indirect
	github.com/prometheus/common v0.3.0 // indirect
	github.com/prometheus/procfs v0.0.0-20190416084830-8368d24ba045 // indirect
	github.com/satori/go.uuid v1.2.0
	github.com/sirupsen/logrus v1.4.1 // indirect
	github.com/stretchr/objx v0.2.0 // indirect
	go.opencensus.io v0.20.2 // indirect
	golang.org/x/crypto v0.0.0-20190422183909-d864b10871cd // indirect
	golang.org/x/exp v0.0.0-20190424083841-8c7d1c524af6 // indirect
	golang.org/x/image v0.0.0-20190424155947-59b11bec70c7 // indirect
	golang.org/x/lint v0.0.0-20190409202823-959b441ac422 // indirect
	golang.org/x/mobile v0.0.0-20190415191353-3e0bab5405d6 // indirect
	golang.org/x/net v0.0.0-20190424112056-4829fb13d2c6
	golang.org/x/oauth2 v0.0.0-20190402181905-9f3314589c9a // indirect
	golang.org/x/sys v0.0.0-20190424175732-18eb32c0e2f0 // indirect
	golang.org/x/text v0.3.1 // indirect
	golang.org/x/time v0.0.0-20190308202827-9d24e82272b4 // indirect
	golang.org/x/tools v0.0.0-20190424031103-cb2dda6eabdf // indirect
	google.golang.org/api v0.3.2 // indirect
	google.golang.org/appengine v1.5.0 // indirect
	google.golang.org/genproto v0.0.0-20190418145605-e7d98fc518a7 // indirect
	google.golang.org/grpc v1.20.1 // indirect
	gopkg.in/check.v1 v1.0.0-20180628173108-788fd7840127 // indirect
	gopkg.in/yaml.v2 v2.2.2 // indirect
	honnef.co/go/tools v0.0.0-20190418001031-e561f6794a2a // indirect
)
